{
  "name": "javascript-app",
  "version": "",
  "description": "Test app",
  "main": "test.js",
  "author": "",
  "license": "",
  "language":"javascript",
  "scripts": {
    "start": "node test.js"
  },
  "dependency": null
}
